…
---

.left-column[
## tsibble
### - overview
### - coercion
]
.right-column[
### Start with a tibble/data.frame
```{r ped-df, results = "hide"}
```
```
*#> # A tibble: 377,712 x 5
#>                               Sensor  Date_Time       Date
#>                                <chr>     <dttm>     <date>
#>  1    Chinatown-Lt Bourke St (South) 2016-01-01 2016-01-01
#>  2                   Waterfront City 2016-01-01 2016-01-01
#>  3                   Lygon St (East) 2016-01-01 2016-01-01
#>  4                  Town Hall (West) 2016-01-01 2016-01-01
#>  5      Monash Rd-Swanston St (West) 2016-01-01 2016-01-01
#>  6             Collins Place (South) 2016-01-01 2016-01-01
#>  7     Spencer St-Collins St (North) 2016-01-01 2016-01-01
#>  8 Flinders Street Station Underpass 2016-01-01 2016-01-01
#>  9                    Birrarung Marr 2016-01-01 2016-01-01
#> 10     QV Market-Elizabeth St (West) 2016-01-01 2016-01-01
#> # ... with 377,702 more rows, and 2 more variables:
#> #   Time <int>, Count <int>
```
…
---

.left-column[
## tsibble
### - overview
### - coercion
]
.right-column[
### Coerce to a tsibble with `as_tsibble()`
```{r ped-ts, results = "hide"}
```

```
*#> # A tsibble: 377,712 x 5 [1HOUR]
*#> # Keys:      Sensor
#>  *                            Sensor  Date_Time       Date
#>                                <chr>     <dttm>     <date>
#>  1    Chinatown-Lt Bourke St (South) 2016-01-01 2016-01-01
#>  2                   Waterfront City 2016-01-01 2016-01-01
#>  3                   Lygon St (East) 2016-01-01 2016-01-01
#>  4                  Town Hall (West) 2016-01-01 2016-01-01
#>  5      Monash Rd-Swanston St (West) 2016-01-01 2016-01-01
#>  6             Collins Place (South) 2016-01-01 2016-01-01
#>  7     Spencer St-Collins St (North) 2016-01-01 2016-01-01
#>  8 Flinders Street Station Underpass 2016-01-01 2016-01-01
#>  9                    Birrarung Marr 2016-01-01 2016-01-01
#> 10     QV Market-Elizabeth St (West) 2016-01-01 2016-01-01
#> # ... with 377,702 more rows, and 2 more variables:
#> #   Time <int>, Count <int>
```
…
