Analysing sub-daily time series data
…
```r
pedestrian <- as_tibble(rwalkr::run_melb(year = 2016))
subdat <- pedestrian %>% 
  filter(Sensor %in% sensors) %>% 
  mutate(Day = wday2(Date, label = TRUE))
subdat
```

```
#> # A tibble: 26,352 x 6
#>                               Sensor           Date_Time
#>                                <chr>              <dttm>
#>  1 Flinders Street Station Underpass 2016-01-01 00:00:00
#>  2                     State Library 2016-01-01 00:00:00
#>  3                 Flagstaff Station 2016-01-01 00:00:00
#>  4 Flinders Street Station Underpass 2016-01-01 01:00:00
#>  5                     State Library 2016-01-01 01:00:00
#>  6                 Flagstaff Station 2016-01-01 01:00:00
#>  7 Flinders Street Station Underpass 2016-01-01 02:00:00
#>  8                     State Library 2016-01-01 02:00:00
#>  9                 Flagstaff Station 2016-01-01 02:00:00
#> 10 Flinders Street Station Underpass 2016-01-01 03:00:00
#> # ... with 26,342 more rows, and 4 more variables:
#> #   Date <date>, Time <int>, Count <int>, Day <ord>
```
…
```r
# calendar plot for flinders street station
flinders <- subdat %>% 
  filter(Sensor == "Flinders Street Station Underpass")

flinders_cal <- flinders %>%
  frame_calendar(x = Time, y = Count, date = Date)
flinders_cal
```

```
#> # A tibble: 8,784 x 8
#>                               Sensor           Date_Time
#>  *                             <chr>              <dttm>
#>  1 Flinders Street Station Underpass 2016-01-01 00:00:00
#>  2 Flinders Street Station Underpass 2016-01-01 01:00:00
#>  3 Flinders Street Station Underpass 2016-01-01 02:00:00
#>  4 Flinders Street Station Underpass 2016-01-01 03:00:00
#>  5 Flinders Street Station Underpass 2016-01-01 04:00:00
#>  6 Flinders Street Station Underpass 2016-01-01 05:00:00
#>  7 Flinders Street Station Underpass 2016-01-01 06:00:00
#>  8 Flinders Street Station Underpass 2016-01-01 07:00:00
#>  9 Flinders Street Station Underpass 2016-01-01 08:00:00
#> 10 Flinders Street Station Underpass 2016-01-01 09:00:00
#> # ... with 8,774 more rows, and 6 more variables:
#> #   Time <int>, Count <int>, Day <ord>, Date <date>,
#> #   .Time <dbl>, .Count <dbl>
```
…
